@inquirer/checkbox (^4.0.6 ➜ 4.0.6)
@inquirer/confirm (^5.1.3 ➜ 5.1.3)
@inquirer/core (^10.1.4 ➜ 10.1.4)
@inquirer/editor (^4.2.3 ➜ 4.2.3)
@inquirer/expand (^4.0.6 ➜ 4.0.6)
@inquirer/figures (^1.0.9 ➜ 1.0.9)
@inquirer/input (^4.1.3 ➜ 4.1.3)
@inquirer/number (^3.0.6 ➜ 3.0.6)
@inquirer/password (^4.0.6 ➜ 4.0.6)
@inquirer/prompts (^7.2.3 ➜ 7.2.3)
@inquirer/rawlist (^4.0.6 ➜ 4.0.6)
@inquirer/search (^3.0.6 ➜ 3.0.6)
@inquirer/select (^4.0.6 ➜ 4.0.6)
@inquirer/type (^3.0.2 ➜ 3.0.2)
ansi-escapes (^4.3.2 ➜ 4.3.2)
ansi-regex (^5.0.1 ➜ 5.0.1)
ansi-styles (^4.0.0 ➜ 4.3.0)
chalk (^5.4.1 ➜ 5.4.1)
chardet (^0.7.0 ➜ 0.7.0)
cli-width (^4.1.0 ➜ 4.1.0)
color-convert (^2.0.1 ➜ 2.0.1)
color-name (~1.1.4 ➜ 1.1.4)
emoji-regex (^8.0.0 ➜ 8.0.0)
esbuild (^0.24.2 ➜ 0.24.2)
external-editor (^3.1.0 ➜ 3.1.0)
iconv-lite (^0.4.24 ➜ 0.4.24)
inquirer (^12.3.2 ➜ 12.3.2)
is-fullwidth-code-point (^3.0.0 ➜ 3.0.0)
lodash (^4.17.21 ➜ 4.17.21)
mute-stream (^2.0.0 ➜ 2.0.0)
os-tmpdir (~1.0.2 ➜ 1.0.2)
run-async (^3.0.0 ➜ 3.0.0)
rxjs (^7.8.1 ➜ 7.8.1)
safer-buffer (>= 2.1.2 < 3 ➜ 2.1.2)
signal-exit (^4.1.0 ➜ 4.1.0)
string-width (^4.1.0 ➜ 4.2.3)
strip-ansi (^6.0.0 ➜ 6.0.1)
strip-ansi (^6.0.1 ➜ 6.0.1)
tmp (^0.0.33 ➜ 0.0.33)
tslib (^2.1.0 ➜ 2.8.1)
type-fest (^0.21.3 ➜ 0.21.3)
typescript (^5.7.3 ➜ 5.7.3)
wrap-ansi (^6.2.0 ➜ 6.2.0)
yoctocolors-cjs (^2.1.2 ➜ 2.1.2)